is415-GAA - Take-Home_Ex02
…
# grouping based on the sub-district and date
# the cumulative_case_rate is based on the sum of cases over the total population
vaccination_rate <- vaccine_jkt %>%
  inner_join(jkt, by=c("Sub_District" = "Sub_District")) %>%
  group_by(Sub_District, Date) %>%
  dplyr::summarise(`vaccination_rate` = ((sum(Vaccinated)/(Total_Population))*100)) %>%
  
  #afterwards, pivots the table based on the Dates, using the cumulative case rate as the values
  ungroup() %>% pivot_wider(names_from = Date,
              values_from = vaccination_rate)

print(as_tibble(vaccination_rate))

# A tibble: 261 x 13
   Sub_District  2021-~1 2021-~2 2021-~3 2021-~4 2021-~5 2021-~6 2022-~7 2022-~8
   <chr>           <dbl>   <dbl>   <dbl>   <dbl>   <dbl>   <dbl>   <dbl>   <dbl>
 1 ANCOL            23.8    39.5    49.6    57.9    60.2    61.7    63.2    64.6
 2 ANGKE            25.6    43.0    52.3    59.9    62.7    64.3    65.2    65.9
 3 BALE KAMBANG     17.8    30.7    47.0    57.7    60.8    63.0    64.3    65.3
 4 BALI MESTER      25.1    40.7    51.8    62.0    65.3    67.0    68.2    69.1
 5 BAMBU APUS       23.2    39.6    53.3    63.7    67.0    68.3    69.0    69.9
 6 BANGKA           24.5    43.2    50.4    60.2    64.1    65.6    66.3    66.9
 7 BARU             30.6    47.3    55.2    64.7    67.4    68.5    69.1    69.7
 8 BATU AMPAR       18.7    33.1    47.7    57.5    60.7    62.7    64.1    65.2
 9 BENDUNGAN HI~    27.7    42.7    49.7    60.0    62.7    63.8    64.5    65.1
10 BIDARA CINA      19.8    33.2    47.0    57.8    61.1    62.6    63.5    64.3
# ... with 251 more rows, 4 more variables: `2022-03-02` <dbl>,
#   `2022-04-01` <dbl>, `2022-05-01` <dbl>, `2022-06-01` <dbl>, and abbreviated
#   variable names 1: `2021-07-01`, 2: `2021-08-01`, 3: `2021-09-01`,
#   4: `2021-10-01`, 5: `2021-11-01`, 6: `2021-12-01`, 7: `2022-01-01`,
#   8: `2022-02-01`
…
